%YAML 1.1
%TAG !u! tag:unity3d.com,2011:
--- !u!1 &1145917439595712734
GameObject:
  m_ObjectHideFlags: 0
  m_CorrespondingSourceObject: {fileID: 0}
  m_PrefabInstance: {fileID: 0}
  m_PrefabAsset: {fileID: 0}
  serializedVersion: 6
  m_Component:
  - component: {fileID: 3707735312327625200}
  m_Layer: 0
  m_Name: Player
  m_TagString: Untagged
  m_Icon: {fileID: 0}
  m_NavMeshLayer: 0
  m_StaticEditorFlags: 0
  m_IsActive: 1
--- !u!4 &3707735312327625200
Transform:
  m_ObjectHideFlags: 0
  m_CorrespondingSourceObject: {fileID: 0}
  m_PrefabInstance: {fileID: 0}
  m_PrefabAsset: {fileID: 0}
  m_GameObject: {fileID: 1145917439595712734}
  m_LocalRotation: {x: 0, y: 0, z: 0, w: 1}
  m_LocalPosition: {x: 0, y: 0, z: 0}
  m_LocalScale: {x: 1, y: 1, z: 1}
  m_Children:
  - {fileID: 536360427730014964}
  m_Father: {fileID: 0}
  m_RootOrder: 0
  m_LocalEulerAnglesHint: {x: 0, y: 0, z: 0}
--- !u!1001 &7137183697174924919
PrefabInstance:
  m_ObjectHideFlags: 0
  serializedVersion: 2
  m_Modification:
    m_TransformParent: {fileID: 3707735312327625200}
    m_Modifications:
    - target: {fileID: 7241179301297429634, guid: f5d906e14b2080044bd28bbbea76c50b,
        type: 3}
      propertyPath: m_Name
      value: Player
      objectReference: {fileID: 0}
    - target: {fileID: 7241179301297429635, guid: f5d906e14b2080044bd28bbbea76c50b,
        type: 3}
      propertyPath: m_LocalPosition.x
      value: 0
      objectReference: {fileID: 0}
    - target: {fileID: 7241179301297429635, guid: f5d906e14b2080044bd28bbbea76c50b,
        type: 3}
      propertyPath: m_LocalPosition.y
      value: 0
      objectReference: {fileID: 0}
    - target: {fileID: 7241179301297429635, guid: f5d906e14b2080044bd28bbbea76c50b,
        type: 3}
      propertyPath: m_LocalPosition.z
      value: 0
      objectReference: {fileID: 0}
    - target: {fileID: 7241179301297429635, guid: f5d906e14b2080044bd28bbbea76c50b,
        type: 3}
      propertyPath: m_LocalRotation.x
      value: -0
      objectReference: {fileID: 0}
    - target: {fileID: 7241179301297429635, guid: f5d906e14b2080044bd28bbbea76c50b,
        type: 3}
      propertyPath: m_LocalRotation.y
      value: -0
      objectReference: {fileID: 0}
    - target: {fileID: 7241179301297429635, guid: f5d906e14b2080044bd28bbbea76c50b,
        type: 3}
      propertyPath: m_LocalRotation.z
      value: -0
      objectReference: {fileID: 0}
    - target: {fileID: 7241179301297429635, guid: f5d906e14b2080044bd28bbbea76c50b,
        type: 3}
      propertyPath: m_LocalRotation.w
      value: 1
      objectReference: {fileID: 0}
    - target: {fileID: 7241179301297429635, guid: f5d906e14b2080044bd28bbbea76c50b,
        type: 3}
      propertyPath: m_RootOrder
      value: 0
      objectReference: {fileID: 0}
    - target: {fileID: 7241179301297429635, guid: f5d906e14b2080044bd28bbbea76c50b,
        type: 3}
      propertyPath: m_LocalEulerAnglesHint.x
      value: 0
      objectReference: {fileID: 0}
    - target: {fileID: 7241179301297429635, guid: f5d906e14b2080044bd28bbbea76c50b,
        type: 3}
      propertyPath: m_LocalEulerAnglesHint.y
      value: 0
      objectReference: {fileID: 0}
    - target: {fileID: 7241179301297429635, guid: f5d906e14b2080044bd28bbbea76c50b,
        type: 3}
      propertyPath: m_LocalEulerAnglesHint.z
      value: 0
      objectReference: {fileID: 0}
    - target: {fileID: 7241179301425631456, guid: f5d906e14b2080044bd28bbbea76c50b,
        type: 3}
      propertyPath: m_Material
      value: 
      objectReference: {fileID: 0}
    - target: {fileID: 7241179301572010733, guid: f5d906e14b2080044bd28bbbea76c50b,
        type: 3}
      propertyPath: m_Materials.Array.data[0]
      value: 
      objectReference: {fileID: 0}
    - target: {fileID: 7241179302845645812, guid: f5d906e14b2080044bd28bbbea76c50b,
        type: 3}
      propertyPath: targetEnemy
      value: 
      objectReference: {fileID: 0}
    m_RemovedComponents: []
  m_SourcePrefab: {fileID: 100100000, guid: f5d906e14b2080044bd28bbbea76c50b, type: 3}
--- !u!4 &536360427730014964 stripped
Transform:
  m_CorrespondingSourceObject: {fileID: 7241179301297429635, guid: f5d906e14b2080044bd28bbbea76c50b,
    type: 3}
  m_PrefabInstance: {fileID: 7137183697174924919}
  m_PrefabAsset: {fileID: 0}
